other_gates/gdmux8way/signals.vcd
$date
	Mon Feb 17 19:29:10 2025
$end
$version
	Icarus Verilog
$end
$timescale
	1s
$end
$scope module tb_gdmux8way $end
$var wire 1 ! out_h $end
$var wire 1 " out_g $end
$var wire 1 # out_f $end
$var wire 1 $ out_e $end
$var wire 1 % out_d $end
$var wire 1 & out_c $end
$var wire 1 ' out_b $end
$var wire 1 ( out_a $end
$var reg 1 ) in_in $end
$var reg 3 * in_sel [2:0] $end
$scope module uut $end
$var wire 1 ) in $end
$var wire 3 + sel [2:0] $end
$var wire 1 , w2 $end
$var wire 1 - w1 $end
$var wire 1 ! h $end
$var wire 1 " g $end
$var wire 1 # f $end
$var wire 1 $ e $end
$var wire 1 % d $end
$var wire 1 & c $end
$var wire 1 ' b $end
$var wire 1 ( a $end
$scope module demux1 $end
$var wire 1 ) a $end
$var wire 1 . sel $end
$var wire 1 , y $end
$var wire 1 - x $end
$upscope $end
$scope module demux2 $end
$var wire 1 - in $end
$var wire 2 / sel [1:0] $end
$var wire 1 0 w2 $end
$var wire 1 1 w1 $end
$var wire 1 % d $end
$var wire 1 & c $end
$var wire 1 ' b $end
$var wire 1 ( a $end
$scope module demux1 $end
$var wire 1 - a $end
$var wire 1 2 sel $end
$var wire 1 0 y $end
$var wire 1 1 x $end
$upscope $end
$scope module demux2 $end
$var wire 1 1 a $end
$var wire 1 3 sel $end
$var wire 1 ' y $end
$var wire 1 ( x $end
$upscope $end
$scope module demux3 $end
$var wire 1 0 a $end
$var wire 1 4 sel $end
$var wire 1 % y $end
$var wire 1 & x $end
$upscope $end
$upscope $end
$scope module demux3 $end
$var wire 1 , in $end
$var wire 2 5 sel [1:0] $end
$var wire 1 6 w2 $end
$var wire 1 7 w1 $end
$var wire 1 ! d $end
$var wire 1 " c $end
$var wire 1 # b $end
$var wire 1 $ a $end
$scope module demux1 $end
$var wire 1 , a $end
$var wire 1 8 sel $end
$var wire 1 6 y $end
$var wire 1 7 x $end
$upscope $end
$scope module demux2 $end
$var wire 1 7 a $end
$var wire 1 9 sel $end
$var wire 1 # y $end
$var wire 1 $ x $end
$upscope $end
$scope module demux3 $end
$var wire 1 6 a $end
$var wire 1 : sel $end
$var wire 1 ! y $end
$var wire 1 " x $end
$upscope $end
$upscope $end
$upscope $end
$upscope $end
$enddefinitions $end
$comment Show the parameter values. $end
$dumpall
$end
#0
$dumpvars
0:
09
08
07
06
b0 5
04
03
02
11
00
b0 /
0.
1-
0,
b0 +
b0 *
1)
1(
0'
0&
0%
0$
0#
0"
0!
$end
#10
0(
1'
13
14
19
1:
b1 /
b1 5
b1 *
b1 +
#20
1&
01
10
0(
0'
12
03
04
18
09
0:
b10 /
b10 5
b10 *
b10 +
#30
0&
1%
13
14
19
1:
b11 /
b11 5
b11 *
b11 +
#40
1$
00
0&
0%
17
0-
1,
02
03
04
08
09
0:
1.
b0 /
b0 5
b100 *
b100 +
#50
0$
1#
13
14
19
1:
b1 /
b1 5
b101 *
b101 +
#60
1"
07
16
0$
0#
12
03
04
18
09
0:
b10 /
b10 5
b110 *
b110 +
#70
0"
1!
13
14
19
1:
b11 /
b11 5
b111 *
b111 +
