gram8/signals.vcd
$date
	Sun Mar 23 12:25:03 2025
$end
$version
	Icarus Verilog
$end
$timescale
	1s
$end
$scope module tb_gram8 $end
$var wire 16 ! out_w [15:0] $end
$var reg 3 " address [2:0] $end
$var reg 1 # clk $end
$var reg 1 $ load $end
$var reg 16 % w [15:0] $end
$scope module uut $end
$var wire 3 & address [2:0] $end
$var wire 1 # clk $end
$var wire 1 $ load $end
$var wire 16 ' out_w [15:0] $end
$var wire 16 ( w [15:0] $end
$upscope $end
$upscope $end
$enddefinitions $end
$comment Show the parameter values. $end
$dumpall
$end
#0
$dumpvars
b0 (
bx '
b0 &
b0 %
0$
0#
b0 "
bx !
$end
#1
b1010101010101010 !
b1010101010101010 '
1#
b1010101010101010 %
b1010101010101010 (
1$
#2
0#
#3
1#
b101010101010101 !
b101010101010101 '
b1 "
b1 &
b101010101010101 %
b101010101010101 (
#4
0#
#5
1#
b1111000011110000 !
b1111000011110000 '
b10 "
b10 &
b1111000011110000 %
b1111000011110000 (
#6
0#
#7
1#
b111100001111 !
b111100001111 '
b11 "
b11 &
b111100001111 %
b111100001111 (
#8
0#
#9
1#
b1111111100000000 !
b1111111100000000 '
b100 "
b100 &
b1111111100000000 %
b1111111100000000 (
#10
0#
#11
1#
b11111111 !
b11111111 '
b101 "
b101 &
b11111111 %
b11111111 (
#12
0#
#13
1#
b1010101001010101 !
b1010101001010101 '
b110 "
b110 &
b1010101001010101 %
b1010101001010101 (
#14
0#
#15
1#
b101010110101010 !
b101010110101010 '
b111 "
b111 &
b101010110101010 %
b101010110101010 (
#16
0#
#17
1#
b1010101010101010 !
b1010101010101010 '
b0 "
b0 &
0$
#18
0#
#19
1#
b101010101010101 !
b101010101010101 '
b1 "
b1 &
#20
0#
#21
1#
b1111000011110000 !
b1111000011110000 '
b10 "
b10 &
#22
0#
#23
1#
b111100001111 !
b111100001111 '
b11 "
b11 &
#24
0#
#25
1#
b1111111100000000 !
b1111111100000000 '
b100 "
b100 &
#26
0#
#27
1#
b11111111 !
b11111111 '
b101 "
b101 &
#28
0#
#29
1#
b1010101001010101 !
b1010101001010101 '
b110 "
b110 &
#30
0#
#31
1#
b101010110101010 !
b101010110101010 '
b111 "
b111 &
#32
0#
#33
1#
b1010101010101010 !
b1010101010101010 '
b0 "
b0 &
b1111111111111111 %
b1111111111111111 (
#34
0#
#35
1#
#36
0#
#37
b1111111111111111 !
b1111111111111111 '
1#
1$
#38
0#
#39
1#
0$
